<?xml version="1.0" encoding="utf-8"?>
<!-- Generator: Adobe Illustrator 22.0.0, SVG Export Plug-In . SVG Version: 6.00 Build 0)  -->
<svg version="1.1" id="Layer_1" xmlns="http://www.w3.org/2000/svg" xmlns:xlink="http://www.w3.org/1999/xlink" x="0px" y="0px"
	 viewBox="0 0 95 81" style="enable-background:new 0 0 95 81;" xml:space="preserve">
<path d="M95,64V0H0v64h46v14H35v3h26v-3H50V64H95z M4,4h87v45H4V4z M4,60v-9h87v9H4z"/>
</svg>
