<?xml version="1.0" encoding="utf-8"?>
<!-- Generator: Adobe Illustrator 22.0.0, SVG Export Plug-In . SVG Version: 6.00 Build 0)  -->
<svg version="1.1" id="Layer_1" xmlns="http://www.w3.org/2000/svg" xmlns:xlink="http://www.w3.org/1999/xlink" x="0px" y="0px"
	 viewBox="0 0 21 21" style="enable-background:new 0 0 21 21;" xml:space="preserve">
<path d="M20.7,19.3l-4.9-4.9c1.2-1.5,1.9-3.4,1.9-5.5c0-4.9-4-8.9-8.9-8.9S0,4,0,8.9s4,8.9,8.9,8.9c2.1,0,4-0.7,5.5-1.9l4.9,4.9
	L20.7,19.3z M8.9,15.7C5.1,15.7,2,12.6,2,8.9S5.1,2,8.9,2s6.9,3.1,6.9,6.9S12.6,15.7,8.9,15.7z"/>
</svg>
