<?xml version="1.0" encoding="utf-8"?>
<!-- Generator: Adobe Illustrator 22.0.0, SVG Export Plug-In . SVG Version: 6.00 Build 0)  -->
<svg version="1.1" id="Layer_1" xmlns="http://www.w3.org/2000/svg" xmlns:xlink="http://www.w3.org/1999/xlink" x="0px" y="0px"
	 viewBox="0 0 28 28" style="enable-background:new 0 0 28 28;" xml:space="preserve">
<path d="M22.1,28h-0.4C9.7,28,0,18.3,0,6.3V5.9l5.3-5.3L12.8,8l-4.3,4.3l7.2,7.2l4.3-4.3l7.5,7.4L22.1,28z M2,6.7
	C2.2,17.3,10.7,25.8,21.3,26l3.3-3.3L20,18.1l-4.3,4.3l-10-10L9.9,8L5.3,3.4L2,6.7z"/>
</svg>
