<?xml version="1.0" encoding="utf-8"?>
<!-- Generator: Adobe Illustrator 22.0.0, SVG Export Plug-In . SVG Version: 6.00 Build 0)  -->
<svg version="1.1" id="Layer_1" xmlns="http://www.w3.org/2000/svg" xmlns:xlink="http://www.w3.org/1999/xlink" x="0px" y="0px"
	 viewBox="0 0 104 64" style="enable-background:new 0 0 104 64;" xml:space="preserve">
<path id="e1msa" d="M91.4,32.3L77,9.5L85.5,4l14.4,22.8L91.4,32.3z M80.9,38.6c-0.2-0.1-0.3-0.3-0.5-0.4L53.8,21
	c-1.4-0.9-3.2-1-4.6-0.2l-12.4,6.5c-0.4,0.2-0.9,0.2-1.3-0.1c-0.3-0.2-0.4-0.5-0.5-0.8c0-0.3,0-0.7,0.2-0.9l5.8-7.6
	c1-1.3,2.4-2.2,4-2.5l6.8-1.3c3.8-0.7,7.6-0.7,11.3,0.1l7.3,1.5c0.9,0.2,1.8,0.1,2.7-0.2l2.9-1.2l11.4,18.1L80.9,38.6z M79.3,44.7
	c-0.8,1.2-2.3,1.5-3.5,0.8l-1.5-0.9v0l-1.4-0.8l0,0l-11.5-6.9c-0.8-0.5-1.8-0.2-2.3,0.6s-0.2,1.8,0.6,2.3l12.9,7.7
	c0.4,0.2,0.7,0.6,0.8,1.1c0.1,0.4,0,0.9-0.2,1.3c-0.9,1.3-2.6,1.8-4,1l-11.3-6.1c-0.8-0.4-1.9-0.1-2.3,0.7c-0.4,0.8-0.1,1.8,0.7,2.2
	l8.1,4.4l2,1.2c0.4,0.2,0.6,0.6,0.7,1c0.1,0.4,0,0.9-0.3,1.2c0,0,0,0.1-0.1,0.1c-0.8,1.2-2.3,1.6-3.6,1l-8.7-4.4
	c-0.8-0.4-1.9,0-2.3,0.8c-0.4,0.8-0.1,1.8,0.7,2.2l7.2,3.7c-1.5,0.9-3.3,1.3-5,1l-6.5-1l0.5-0.7c1.5-2.1,1.1-5.1-0.9-6.7
	c0,0,0,0,0,0c-0.6-0.5-1.3-0.8-2.1-1c0.6-2.1,0-4.4-1.8-5.8c-0.9-0.7-2.1-1.2-3.3-1.2c0-0.5,0-0.9-0.1-1.3c-0.3-1.5-1.1-2.7-2.4-3.5
	c-2.5-1.6-5.8-0.9-7.5,1.5c-0.4-0.7-1-1.2-1.7-1.7c-2.1-1.3-4.8-1-6.6,0.7L17.1,32L28,14.8l3.1,1.6c0.4,0.2,0.9,0.4,1.4,0.5l4.4,0.7
	l-4.4,5.8c-0.8,1-1.1,2.2-0.9,3.4c0.2,1.2,0.8,2.3,1.8,3.1c1.4,1.1,3.3,1.2,4.9,0.4l12.4-6.5c0.4-0.2,0.9-0.2,1.2,0.1l26.6,17.3
	c0.6,0.4,1,1,1.1,1.7C79.8,43.4,79.7,44.1,79.3,44.7L79.3,44.7z M41.8,60.5c-0.5-0.2-0.8-0.6-0.9-1c-0.1-0.3-0.1-0.7,0-1l2.8-4
	c0.3-0.4,0.7-0.6,1.2-0.6c0.4,0,0.7,0.1,1,0.4c0,0,0,0,0,0c0.6,0.5,0.7,1.5,0.3,2.1l-2.5,3.6C43.3,60.5,42.5,60.8,41.8,60.5z
	 M34.6,58.3c-0.5-0.3-0.9-0.8-1.1-1.4c-0.1-0.4-0.1-0.9,0.1-1.3l5.4-7.9c0.4-0.5,1-0.8,1.7-0.8c0.5,0,0.9,0.2,1.3,0.5
	c0.9,0.7,1,1.9,0.4,2.8l-1.5,2.2c0,0-0.1,0.1-0.1,0.1l-2.5,3.6c-0.1,0.1-0.1,0.3-0.2,0.4l-0.8,1.1C36.7,58.5,35.5,58.8,34.6,58.3
	L34.6,58.3z M29,55.3c-1.2,0.2-2.3-0.6-2.5-1.7c-0.1-0.5,0-1.1,0.3-1.6l0.7-1c0-0.1,0.1-0.1,0.1-0.2c1-1.5,2.2-3.2,3.2-4.7
	c0,0,0-0.1,0.1-0.1l2.7-4c0.4-0.6,1.1-0.9,1.8-0.9c0.4,0,0.8,0.1,1.1,0.3c0.5,0.3,0.8,0.8,0.9,1.4c0.1,0.6,0,1.1-0.3,1.6l-0.9,1.4
	c0,0,0,0-0.1,0.1l-5.1,7.4c-0.1,0.1-0.1,0.3-0.2,0.4l-0.5,0.7C30.1,54.9,29.6,55.2,29,55.3L29,55.3z M21.9,49.4
	c-0.9-0.7-1.1-1.9-0.5-2.8l3.2-4.6c0.4-0.5,1-0.9,1.7-0.9c0.4,0,0.8,0.1,1.1,0.3c0.9,0.6,1.3,1.8,0.7,2.8l-3.4,5
	c-0.3,0.4-0.7,0.6-1.2,0.7C23.1,49.9,22.5,49.8,21.9,49.4L21.9,49.4z M12.5,33.1L4,27.7L18.4,4.9l8.4,5.3L12.5,33.1z M103.7,26.5
	L87.5,0.8c-0.5-0.8-1.5-1-2.3-0.5c0,0,0,0,0,0L73.8,7.6c-0.8,0.5-1,1.5-0.5,2.3l1,1.5l-2.4,0.9c-0.2,0.1-0.5,0.1-0.7,0.1l-7.3-1.5
	c-4.2-0.9-8.5-0.9-12.7-0.1L44.4,12c-1.9,0.3-3.6,1.2-5,2.5l-6.4-1c-0.1,0-0.3-0.1-0.4-0.1l-2.9-1.5l0.8-1.3
	c0.5-0.8,0.3-1.8-0.5-2.3L18.8,1.1C18,0.6,17,0.9,16.5,1.7L0.3,27.4c-0.5,0.8-0.3,1.8,0.5,2.3l11.3,7.1c0.8,0.5,1.8,0.3,2.3-0.5
	c0,0,0,0,0,0l0.8-1.2l5.3,7l-1.8,2.6C17,47,17.6,50.4,20,52.1l0.1,0.1c0.9,0.6,2,1,3.1,1c0,1.8,0.9,3.5,2.3,4.5
	c1.2,0.9,2.7,1.2,4.1,0.9c0.3-0.1,0.6-0.1,0.9-0.3c0.5,1.2,1.3,2.3,2.5,2.9c0.8,0.4,1.7,0.7,2.6,0.7c0.8,0,1.7-0.2,2.4-0.6
	c0.5,1,1.4,1.8,2.5,2.3c0.6,0.3,1.2,0.4,1.9,0.4c1.5,0,3-0.7,4-1.9l8.2,1.3c0.6,0.1,1.1,0.1,1.7,0.1c2.8,0,5.5-1.1,7.6-3.1
	c0.2,0,0.4,0,0.6,0c2.1,0,4-1.1,5.1-2.8c0.6-0.9,0.9-1.9,0.9-3c0,0,0.1,0,0.1,0c2.1,0,4.2-1,5.4-2.9c0.5-0.7,0.8-1.6,0.8-2.5
	c0.1,0,0.3,0,0.4,0c1.9,0,3.9-1,5-2.7c0.9-1.3,1.2-3,0.9-4.5c0-0.2-0.1-0.4-0.2-0.6l6.5-6.1l0.2,0.3c0.5,0.8,1.5,1,2.3,0.5
	c0,0,0,0,0,0l11.4-7.3C104,28.3,104.2,27.3,103.7,26.5L103.7,26.5z"/>
</svg>
