<?xml version="1.0" encoding="utf-8"?>
<!-- Generator: Adobe Illustrator 22.0.0, SVG Export Plug-In . SVG Version: 6.00 Build 0)  -->
<svg version="1.1" id="Layer_1" xmlns="http://www.w3.org/2000/svg" xmlns:xlink="http://www.w3.org/1999/xlink" x="0px" y="0px"
	 viewBox="0 0 719.5 142.2" style="enable-background:new 0 0 719.5 142.2;" xml:space="preserve">
<style type="text/css">
	.Arched_x0020_Green{fill:url(#SVGID_1_);stroke:#FFFFFF;stroke-width:0.25;stroke-miterlimit:1;}
</style>
<linearGradient id="SVGID_1_" gradientUnits="userSpaceOnUse" x1="-1.0342" y1="258.4595" x2="-0.3271" y2="257.7524">
	<stop  offset="0" style="stop-color:#20AC4B"/>
	<stop  offset="0.9831" style="stop-color:#19361A"/>
</linearGradient>
<path d="M697.5,105.8v-2.5h1.6c0.8,0,1.7,0.2,1.7,1.2c0,1.2-0.9,1.3-1.9,1.3 M697.5,106.8h1.4l2.1,3.5h1.3l-2.3-3.5
	c1.2-0.1,2.1-0.8,2.1-2.2c0-1.6-0.9-2.3-2.8-2.3h-3v8h1.2V106.8z M698.9,113.2c3.8,0,7-2.9,7-6.9c0-4-3.2-6.9-7-6.9
	c-3.8,0-7,2.9-7,6.9C691.9,110.3,695.1,113.2,698.9,113.2 M693.3,106.3c0-3.3,2.5-5.7,5.6-5.7c3.1,0,5.6,2.5,5.6,5.7
	c0,3.3-2.5,5.8-5.6,5.8C695.8,112,693.3,109.6,693.3,106.3"/>
<path d="M282.9,108.5c-4.3,0.4-9-0.1-11.6-1.1c-10.6-4.1-14.3-13.3-15.1-35.5c0-0.4,0.1-1.4,0.8-2c0.9-0.9,2.2-1,2.2-1h32.9
	c1.7,0,3-1.4,3-3l0-2.7c-0.4-17-10-31.2-27.3-31c-18.7,0.2-30.8,14.9-30.8,42.2c0,26.4,13.3,40.3,34,40.3c6.9,0,13.1-1.4,17.5-3
	c1.6-0.5,4.9-2.6,4.9-2.6l0-3.8C293.5,105.2,289.5,107.7,282.9,108.5 M259.3,62.5c-1.7,0-3-1.4-3-3v0.2c0-16.1,5.3-21.7,11.5-21.7
	c5.7,0,10.5,6.6,10.5,20.7l0,0.9c0,1.7-1.4,3-3,3H259.3z"/>
<path d="M458,108.5c-4.3,0.4-9-0.1-11.6-1.1c-10.6-4.1-14.3-13.3-15.1-35.5c0-0.4,0.1-1.4,0.8-2c0.9-0.9,2.2-1,2.2-1h32.9
	c1.7,0,3-1.4,3-3l0-2.7c-0.4-17-10-31.2-27.3-31c-18.7,0.2-30.8,14.9-30.8,42.2c0,26.4,13.3,40.3,34,40.3c6.9,0,13.1-1.4,17.5-3
	c1.6-0.5,4.9-2.6,4.9-2.6l0-3.8C468.5,105.2,464.6,107.7,458,108.5 M434.3,62.5c-1.7,0-3-1.4-3-3v0.2c0-16.1,5.3-21.7,11.5-21.7
	c5.7,0,10.5,6.6,10.5,20.7l0,0.9c0,1.7-1.4,3-3,3H434.3z"/>
<path d="M587.6,108.5c-4.3,0.4-9-0.1-11.6-1.1c-10.6-4.1-14.3-13.3-15.1-35.5c0-0.4,0.1-1.4,0.8-2c0.9-0.9,2.2-1,2.2-1h32.9
	c1.7,0,3-1.4,3-3l0-2.7c-0.4-17-10-31.2-27.3-31c-18.7,0.2-30.8,14.9-30.8,42.2c0,26.4,13.3,40.3,34,40.3c6.9,0,13.1-1.4,17.5-3
	c1.6-0.5,4.9-2.6,4.9-2.6l0-3.8C598.1,105.2,594.1,107.7,587.6,108.5 M563.9,62.5c-1.7,0-3-1.4-3-3v0.2c0-16.1,5.3-21.7,11.5-21.7
	c5.7,0,10.5,6.6,10.5,20.7l0,0.9c0,1.7-1.4,3-3,3H563.9z"/>
<path d="M300.4,44.8c0-3.9,0.1-5.8-1.9-5.1l-0.3-0.7l16.6-8.1c1.8-0.8,3.1,0.5,3,3l0,6.7l0.4,0.9l1-1.1c1.1-1.3,2.1-2.4,3.4-3.4
	c3.5-2.8,7.6-4.9,12.8-4.9c14.8,0,26.3,12.8,26.3,41c0,29.1-12.2,41.5-31.1,41.5c-2,0-3.8-0.1-5.5-0.4c-2.8-0.4-5.3-1.5-6.1-1.6
	l-0.5,0.5l0,23.2c0,1.7,0.1,3.9,2.2,5l0,0.8l-22.7,0l0-0.8c2.1-1,2.2-3.3,2.2-5 M343.1,74c0-23-4.7-31.2-14.6-31.2
	c-2.8,0-6.3,1.6-8.6,3.4c-0.5,0.4-1.4,1.4-1.4,4.1v50.5c0,3.5,0.4,4.5,1.8,4.9c2.1,0.6,4.7,1,7.8,1C337.5,106.7,343.1,98.9,343.1,74
	"/>
<path d="M97.1,53.7l0,53.5c0,1.7,0.1,3.9,2.2,5l0,0.8l-22.8,0l0-0.8c2.1-1,2.2-3.3,2.2-5l0-63.4c0-2.4-0.4-3.6-1.9-3l-0.3-0.7
	l16.6-8c1.8-0.8,3.1,0.5,3.1,3.1V43c0,1,0,1,0,1.2l0.4,0.8c0.3,0,0.4-0.5,1.6-1.8c7.1-8.3,14.1-10.9,20.7-10.9
	c11.3,0,19.3,9.1,19.3,24.8l0,50.2c0,1.7,0.1,3.9,2.2,5l0,0.8l-22.8,0l0-0.8c2.1-1,2.2-3.3,2.2-5l0-49.2c0-8.8-3.2-12.8-10.1-12.8
	c-3.2,0-7.5,1.8-10.6,4.2c-0.8,0.6-0.9,0.7-1.1,0.9C97.5,50.9,97.1,51.8,97.1,53.7"/>
<path d="M494.4,53.7l0.1,53.5c0,1.7,0.1,3.9,2.2,5l0,0.8l-22.8,0l0-0.8c2.1-1,2.2-3.3,2.2-5l0-63.4c0-2.4-0.4-3.6-1.9-3l-0.3-0.7
	l16.6-8c1.8-0.8,3.1,0.5,3.1,3.1V43c0,1,0,1,0,1.2L494,45c0.3,0,0.4-0.5,1.6-1.8c7.1-8.3,14.1-10.9,20.7-10.9
	c11.3,0,19.3,9.1,19.3,24.8l0,50.2c0,1.7,0.1,3.9,2.2,5l0,0.8l-22.8,0l0-0.8c2.1-1,2.2-3.3,2.2-5l0-49.2c0-8.8-3.2-12.8-10.1-12.8
	c-3.2,0-7.5,1.8-10.6,4.2c-0.8,0.6-0.9,0.7-1.1,0.9C494.8,50.9,494.4,51.8,494.4,53.7"/>
<path d="M143,38.1l4.1,0c1.7,0,3,1.4,3,3l0,53.8c0,10.7,5,19.9,17.9,19.9c5.2,0,9.1-1.1,12.3-2.6c3.2-1.3,6.3-4.3,6.3-4.3l0-3.8
	c0,0-3.9,2.7-10.4,3.1c-6,0-7.7-5.3-7.7-12.7l0-53.4c0-1.7,1.4-3,3-3h7.5c5.7,0,5.7,0,5.7-2.2v-2.7c0-1.4,0-1.2-3-1.2h-10.2
	c-1.7,0-3-1.4-3-3l0-16.7v-0.6c0-2.4,0-2.3-2.5-2.3c-1.5,0-3,0.2-5.2,3c-7.1,9.3-14.6,15.9-20.2,18.5c-2.9,1.4-2.7,0.9-2.7,4.1
	c0,3.1,0,3.2,3.4,3.2C141.8,38.1,142.2,38.1,143,38.1"/>
<path d="M209.6,45.2l0,0.8c0,1,0,1,0,1.2c0,0.8,0.2,0.8,0.6,0.8c0.4,0,0.6-0.4,1.4-1.9c3.2-7.2,10.7-15.6,19.5-15.7
	c5.8-0.1,9.9,4,9.9,9.8c0,4-3,9.1-7.3,9.2c-8.1,0.3-8.7-5.3-12.6-5.3c-4,0-7.8,10.4-9,14.5c-1.6,5.9-2.5,13.2-2.5,19.8v2.2l0,27.5
	c0,1.7,0.1,3.9,2.2,4.9l0,0.8h-22l0-0.8c2.1-1,2.2-3.3,2.2-4.9l0-64.3c0-2.4-0.4-3.6-1.9-3l-0.3-0.7l16.6-8c1.8-0.8,3.1,0.5,3.1,3.1
	"/>
<path d="M384.9,45.2l0,0.8c0,1,0,1,0,1.2c0,0.8,0.2,0.8,0.6,0.8c0.4,0,0.6-0.4,1.4-1.9c3.2-7.2,10.7-15.6,19.5-15.7
	c5.8-0.1,9.9,4,9.9,9.8c0,4-3,9.1-7.3,9.2c-8.1,0.3-8.7-5.3-12.6-5.3c-4,0-7.8,10.4-9,14.5c-1.6,5.9-2.5,13.2-2.5,19.8v2.2l0,26.7
	c0,1.7,0.1,3.9,2.2,4.9l0,0.8h-21.9l0-0.8c2.1-1,2.2-3.3,2.2-4.9l0-63.6c0-2.4-0.4-3.6-1.9-3l-0.3-0.7l16.6-8c1.8-0.8,3.1,0.5,3,3.1
	"/>
<path d="M688.2,45.2l0,0.8c0,1,0,1,0,1.2c0,0.8,0.2,0.8,0.6,0.8c0.4,0,0.6-0.4,1.4-1.9c3.2-7.2,10.6-15.6,19.5-15.7
	c5.8-0.1,9.9,4,9.9,9.8c0,4-3,9.1-7.3,9.2c-8.1,0.3-8.7-5.3-12.6-5.3c-4.1,0-7.8,10.4-9,14.5c-1.6,5.9-2.5,13.2-2.5,19.8v2.2l0,26.7
	c0,1.7,0.1,3.9,2.2,4.9l0,0.8h-22l0-0.8c2.1-1,2.2-3.3,2.2-4.9l0-63.6c0-2.4-0.4-3.6-1.9-3l-0.3-0.7l16.6-8c1.8-0.8,3.1,0.5,3.1,3.1
	"/>
<path d="M622.5,93.7c0,7.3,3.3,11.2,10.1,11.2c3.2,0,7.4-1.8,10.5-4.2c0.8-0.6,0.9-0.7,1.1-0.8c0.8-0.6,1.1-1.5,1.1-3.4l-0.1-53.1
	c0-2.1-0.4-3.2-1.9-2.6l-0.3-0.7l16.6-8c1.8-0.8,3.1,0.5,3,3.1l0,67.4c0.1,2.8-0.2,5.8,2,5l0.3,0.7l-16.5,6.5c-1.7,0-3-1.4-3-3.1
	v-3.2c0-1,0-1,0-1.2l-0.4-0.8c-0.3,0-0.3,0.6-1.6,1.8c-6.2,6-12.2,7.1-18.8,7.1c-12.9,0-19.4-9.4-19.4-23.7l0-48.1
	c0-2.1-0.4-3.2-1.9-2.6l-0.3-0.7l16.6-8c1.8-0.8,3.1,0.5,3,3.1"/>
<path d="M53.8,45.5L53,45.5c-1,2.1-3.3,2.3-5,2.3l-21.8,0c-1.7,0-3.1-1.3-3.1-3V16.1c0-1.7,1.4-3,3-3l27.8-0.1
	c9,0,10.2,3.5,11.7,9.4l0.8,0L69.1,0l-0.8,0c-1,2.1-3.3,2.2-5,2.2L0,2.3L0,3c2.1,1,2.2,3.3,2.2,5l0,99c0,1.6-0.3,4.2-2.1,5.2l0,0.8
	l65.9,0c3.1,0,5.1,0,5,2.2l0.8,0.1l2.6-22.5l-0.8-0.1c-2.5,6.1-8,9.4-17,9.5H26.1c-1.7,0-3-1.4-3-3l0-37.6c0-1.7,1.4-3.1,3.1-3.1
	l20.1,0c3.1,0,5,0,5,2.2l0.7,0.1"/>
</svg>
